{
  "grid_items":[
    "grid-header",
    "grid-footer",
    "grid-sidebar"
  ],
  "en": {

    "read_more": "Read more",

    "play_movie": "Play movie",

    "see_the_film": "See the film",

    "go_to": "Go to",
    "go_to_product": "Go to product",
    "go_to_products": "Go to products",

    "footer_text": "<p>We have worked with sustainability for more than 85 years. To us, this means using robust, and high quality materials that are sustainable in every matter. We also believe in using fewer things, and the possibility to repair your boot, garment or backpack when you have worn it for a very long time. </p><p>Now, we have taken this one step further, and made our fabric LPC (Lundhags PolyCotton) even more sustainable. We have also optimised our line of production – to make sure they have as little negative impact on the environment as possible.</p>
    <p>Continue your Lundhags adventure also on social media. Follow us – and sign up for our newsletter – right here, right now.</p>"
  },

  "sv": {
    "read_more": "Läs mer",

    "play_movie": "Spela film",

    "see_the_film": "Se filmen",

    "go_to": "Gå till",
    "go_to_product": "Gå till produkt",
    "go_to_products": "Gå till produkter",

    "footer_text": "<p>Vi har arbetat med hållbarhet i mer än 85 år. För oss betyder det material av högsta kvalitet, slitstarka detaljer och möjlighet för dig att laga och reparera dina kängor, din ryggsäck, jacka eller byxa när du har använt dem under riktigt lång tid.</p>
		<p>Nu har vi tagit det ett steg längre, och sett över materialval, vidareutvecklat vårt LPC-material (Lundhags PolyCotton) och optimerat vår tillverkning – för att försäkra oss om att nå en så liten miljöpåverkan som möjligt.</p>
    <p>Fortsätt ditt Lundhags äventyr på sociala medier – följ oss här.</p>"
  },

  "de": {
    "read_more": "Weiterlesen",

    "play_movie": "Film abspielen",

    "see_the_film": "Film anschauen",

    "go_to": "gehe zu",
    "go_to_product": "Zum Produkt gehen",
    "go_to_products": "Zu den Produkten gehen",

    "footer_text": "<p>seit mehr als 85 Jahren gehört Nachhaltigkeit zu unserer Arbeit. das bedeutet für uns, dass wir robuste, hochwertige Materialien einsetzen, die in jedem Fall nachhaltig sind. außerdem glauben wir daran, dass weniger mehr sein kann und dass man Stiefel, Kleidung und Rucksäcke nach langen treuen Diensten reparieren können soll.</p>
		<p>und wir sind einen Schritt weiter gegangen und haben unser LPC-Gewebe (Lundhags PolyCotton) noch nachhaltiger gemacht. wir haben außerdem unsere Produktion optimiert, um die Umwelt so wenig wie möglich zu belasten.</p>
    <p>du kannst dein Lundhags-Abenteuer auf sozialen Medien fortsetzen – folge uns – und abonniere unseren Newsletter – jetzt und hier.</p>"
  }

}
