<?xml version="1.0" encoding="utf-8"?>
<!-- Generator: Adobe Illustrator 19.1.0, SVG Export Plug-In . SVG Version: 6.00 Build 0)  -->
<svg version="1.1" id="Lager_1" xmlns="http://www.w3.org/2000/svg" xmlns:xlink="http://www.w3.org/1999/xlink" x="0px" y="0px"
	 viewBox="0 0 595.3 478.8" style="enable-background:new 0 0 595.3 478.8;" xml:space="preserve">
<path d="M193.1,69.3c0,0-8.5-26,9.5-36.9s64.2-41,78.3-9.3c11,20.3,0.5,54,8,66.5c7.5,12.5,21.6,66.5,21.1,70.6
	c4.5,5.7,8.5,13.5,7.5,19.7c4.5,9.9,10.5,21.8,13.5,28c3,6.2,25.6,57.7,90.3,85.7c34.6,26.5,34.1,27,34.6,32.2
	c30.6,0,57.8-9.9,71.7-9.3c12.5,4.7,36.6,0,45.7,59.7c8.5-4.2,12,17.2,13.5,33.2c-8,4.2-99.3,29.1-99.3,29.1s109.4,11.4,52.2,22.9
	c-150.8,15.6-315.1-13-340.6-17.1c-65.2-1.6-282.4-21.8-139.5-30.6c0.7-24.9-5.5-46.7,4.5-52.5c-15.6-39.5,0.5-117.4,9-166.2
	s-5-83.1-5-83.1s9.5,4.7,10-1.6c0.5-6.2-3-39.5,28.6-38.4C138.5,73,193.1,69.3,193.1,69.3z"/>
</svg>
