<?xml version="1.0" encoding="utf-8"?>
<!-- Generator: Adobe Illustrator 17.1.0, SVG Export Plug-In . SVG Version: 6.00 Build 0)  -->
<!DOCTYPE svg PUBLIC "-//W3C//DTD SVG 1.1//EN" "http://www.w3.org/Graphics/SVG/1.1/DTD/svg11.dtd">
<svg version="1.1" id="Lager_1" xmlns="http://www.w3.org/2000/svg" xmlns:xlink="http://www.w3.org/1999/xlink" x="0px" y="0px"
	 viewBox="0 0 452.2 158.7" enable-background="new 0 0 452.2 158.7" xml:space="preserve">
<g>
	<g>
		<path fill="#FFFFFF" d="M436.5,63.8c-6.6,0-17.2,4.2-20.1,5.5c-2.9,1.3-14.8,6.2-14.8,6.2s-0.9-2.9-3.3-5.8
			c-2.4-2.9-6-6.4-6.8-4.9c-0.9,1.6-2.2,4.9-2.2,4.9s1.8,8.9-8.2,12.9c-9.9,4-21.9,0.1-12.3-8.9c6.6-6.2,12.8-4.7,15.2-4.7
			c2.4,0,5.7-0.9,6-4.2c0.2-3.3-3.7-6.9-10.1-6.2c-6.4,0.7-12.6,0.9-20.1,7.8c-7.5,6.9-9.5,12.4-10.8,14.4c-1.3,2-2.6,4.2-5.1,4
			c-2.4-0.2-3.3-3.5-0.9-9.5c2.4-6,1.8-7.8,0.4-9.3c-1.3-1.6-4-0.9-4-0.9s0.7-5.3-7.3-5.1c-6.2,0.2-11.9,1.8-19.8,7.3
			c-7.9,5.5-11.2,12.4-12.8,14.4c-1.5,2-5.7,5.5-10.4,5.3c-4.6-0.2-1.1-6.9,0.7-9.5c1.8-2.7,11.5-15.5,4.2-17.1
			c-7.3-1.6-10.8,2.4-16.7,7.1c-6,4.7-17.6,13.5-17.6,13.5s1.3-5.1,4.2-11.1c2.9-6,5.3-8.6,5.3-8.6s17.2,1.3,42.3-18.2
			c25.1-19.5,22.9-33.7,15.9-39c-7.1-5.3-17.6-5.9-29.3,5.3c-19.6,18.8-36.8,44.1-36.8,44.1s-1.5,0.7-3.7,0.2
			c-2.2-0.4-3.3-1.3-3.3-1.3s7.3-20.2,6.2-28.4c-1.1-8.2-4.8-18-16.7-17.3c-11.9,0.7-15.4,18.6-15.6,23.7
			c-0.2,5.1,1.3,14.9,4.8,19.1c3.5,4.2,7.5,7.5,7.5,7.5s-1.1,1.8-2.2,3.1c-1.1,1.3-2.9,2.7-2.9,2.7s-6.9-8.9-18.3-2.4
			c-9,5.1-13.7,13.3-15.2,15.1c-1.5,1.8-6.2,9.7-12.1,10.4c-6,0.7-4.4-4.7-0.7-11.3c3.7-6.6,2.2-10,0.2-11.1c-2-1.1-6.2,0-9.5,2.9
			c-3.3,2.9-8.2,7.3-10.4,8.9c-2.2,1.6-4.2,1.8-4.2,1.8l4.4-9.3c0,0,2.2-4.7-0.9-6.9c-3.1-2.2-7.5,2.9-8.6,4.2
			c-1.1,1.3-7.9,10.4-13.2,14c-5.3,3.5-9.9,6.6-11.2,4.9c-1.3-1.8,0.9-5.3,3.7-9.1c2.9-3.8,7.7-10.9,2.9-12c-4.8-1.1-9,3.5-11.2,6.2
			c-2.2,2.7-7.7,9.5-12.3,12.2c-4.6,2.7-7.5,5.1-9,3.3c-1.5-1.8,3.3-5.3,5.9-8.4c2.6-3.1,9.3-12.4,4.2-13.5
			c-5.1-1.1-10.8,3.5-14.3,8.2C102,75.6,94,86.7,95.1,90.4c1.1,3.8,2.4,7.3,11.7,6c9.3-1.3,15.6-5.8,15.6-5.8s-2.9,8,6.4,6.4
			c9.3-1.6,13.4-5.1,15.6-6.4c2.2-1.3,8.4-5.3,8.4-5.3l-3.3,7.5c0,0-2,4.4,3.7,4.2c5.7-0.2,9.3-3.5,12.3-7.1
			c3.1-3.5,8.4-7.8,8.4-7.8s2.6-2.4,1.8,1.8c-0.9,4.2-2.4,11.5,2,13.1c4.4,1.6,8.6,0,13-2.9c4.4-2.9,7.3-5.8,7.3-5.8s2,10.2,11.9,10
			c9.9-0.2,17-4,22.7-10.9c5.7-6.9,9.4-10.9,12.8-17.3c1.7-3.2,4.2-8.9,4.2-8.9s1.1,0.5,3.1,0.9c2,0.4,3.3,0.2,3.3,0.2
			s-6.4,12.6-7.5,17.5c-1.1,4.9-2.4,16.8,3.1,17.7c5.5,0.9,10.1-3.1,13.9-6.9c3.7-3.8,9.3-8.6,9.3-8.6s-2,10.9,1.1,12.9
			c3.1,2,8.1,3,12.1,2.2c6.4-1.3,10.8-6.4,10.8-6.4s1.3,6.7,8.8,6.7c7.5,0,9.7-2,12.1-3.8c2.4-1.8,5.7-5.1,5.7-5.1s5.9,8.6,11.7,8.2
			c5.7-0.4,11.9-4.4,11.9-4.4s3.1,4.8,8.2,5.3c6.2,0.6,13.7-3.1,13.7-3.1s-15.6,10.9-20.7,26.8c-5.1,16-5.7,33.7,4.2,36.8
			c9.9,3.1,29.8-8.6,39.2-28.4c9.5-19.7,10.8-33,10.8-38.1c0-5.1-0.2-7.8-0.2-7.8s12.3-8.9,20.7-10.6c8.4-1.8,16.5-2.7,13.7,6.2
			c-2,6.2-11.5,6.2-13,6.2c-1.5,0-5.5-0.7-6.8-1.8c-1.3-1.1-6.2-1.6-6.4,2.2c-0.2,3.8,5.3,12,13.9,12.4c8.6,0.4,23.5-1.3,26-21.3
			C453.3,68.7,443.1,63.8,436.5,63.8z M304.3,17.5c9.5-9.3,23.4-8.3,17.6,3.1c-4.9,9.6-16.3,18.3-21.8,21.7
			c-19.6,12.2-26.7,11.1-26.7,11.1S296.2,25.4,304.3,17.5z M229.6,72.7c-0.4,3.1-3.7,12.2-11.2,14.8c-7.5,2.7-8.8-1.6-7.7-7.3
			c1-5.5,7.9-12.6,14.3-12.9C230.2,67.1,230,69.6,229.6,72.7z M246.1,45.9c0,0-4.2-5.1-5.9-10.9c-1.8-5.8-0.9-16.2,3.3-18.6
			c4.2-2.4,6.8,1.8,7.7,10.2C252,35,246.1,45.9,246.1,45.9z M330.1,79.1c-2.8,2.7-12.2,6.8-15.9,4.4c-4.3-2.8,1.1-10.6,8.4-13.7
			c7.3-3.1,13-2.2,13-2.2S334.7,74.7,330.1,79.1z M391.8,102.2c-1.3,10-9.7,28.4-18.7,36.8c-9,8.4-14.5,11.5-16.3,3.1
			c-1.8-8.4,5.3-24,8.6-28.8c4.8-7.1,12.1-12.6,16.7-15.7C386.7,94.4,393.1,92.2,391.8,102.2z"/>
		<path fill="#FFFFFF" d="M115,108.2c-5.3,4.2-9,6.6-16.5,7.1c-7.5,0.4-28-12.9-28-12.9l45-61.2c0,0,5.5,0.7,11.5,0.4
			c6-0.2,17.4-2.7,28-9.8c10.6-7.1,17.4-14.4,15.2-24.4c-2.2-10-15.2-9.3-30.9-2.2c-15.6,7.1-29.3,23.3-29.3,23.3s-4-3.3-8.4-7.3
			c-4.4-4-9.3-10.6-9.3-10.6l-10.1,7.5c0,0,3.7,6.4,7.3,10.2c3.5,3.8,11.7,9.1,11.7,9.1S89.8,53.1,78.7,68.1
			C68,82.4,57.4,96.2,57.4,96.2s-8.6-0.2-14.5,0c-6,0.2-21.8,2-35,14c-11.5,10.4-7.5,20.4-5.7,22.8c1.8,2.4,6.8,6.6,19.4,4.2
			c12.6-2.4,34.8-21.7,34.8-21.7s7.3,4.4,13.4,6.9c6.2,2.4,19.2,6.9,29.1,4.2c18.7-5.1,27.8-24.6,25.3-25.9
			C121.9,99.3,120.2,103.9,115,108.2z M142.7,12.8c12.3-6.4,20-8,19,2.9c-0.4,4.4-11.3,13.9-17.6,16.4c-15,6-23.4,1.3-23.4,1.3
			S131.1,18.9,142.7,12.8z M31.4,122.6c-2.1,1.6-13.9,10.4-20.1,8.9c-8.3-2.1-6.4-8.6,2.4-16c8.8-7.3,26.9-5.1,26.9-5.1
			S37.2,118.1,31.4,122.6z"/>
	</g>
	<path fill="#FFFFFF" d="M442.5,31.5c5,0,9.1,3.9,9.1,9.1c0,5.2-4.2,9.2-9.1,9.2c-5,0-9.2-3.9-9.2-9.2
		C433.3,35.4,437.5,31.5,442.5,31.5z M442.5,48.3c4.2,0,7.5-3.4,7.5-7.8c0-4.4-3.3-7.7-7.5-7.7c-4.3,0-7.5,3.4-7.5,7.7
		C435,45,438.2,48.3,442.5,48.3z M438.9,35.2h4.1c2.5,0,3.7,1,3.7,3c0,1.9-1.2,2.7-2.8,2.9l3,4.7h-1.8l-2.9-4.6h-1.8v4.6h-1.7V35.2z
		 M440.6,40h1.7c1.5,0,2.8-0.1,2.8-1.8c0-1.4-1.2-1.6-2.3-1.6h-2.2V40z"/>
</g>
</svg>
